[api-updater (non-obsolete-error-filter)] 07.04.2021 12:01:44 : Starting D:/Unity/2020.3.0f1/Editor/Data/Tools/ScriptUpdater/APIUpdater.NonObsoleteApiUpdaterDetector.exe
[api-updater (non-obsolete-error-filter)] 
----------------------------------
jit/startup time      : 1290,5598ms
moved types parse time: 94ms
candidates parse time : 2ms
C# parse time         : 894ms
candidates check time : 76ms
console write time    : 12ms

[api-updater (non-obsolete-error-filter)] 10.04.2021 13:52:13 : Starting D:/Program Files (x86)/unity/2020.3.0f1/Editor/Data/Tools/ScriptUpdater/APIUpdater.NonObsoleteApiUpdaterDetector.exe
[api-updater (non-obsolete-error-filter)] 
----------------------------------
jit/startup time      : 337,9177ms
moved types parse time: 50ms
candidates parse time : 1ms
C# parse time         : 373ms
candidates check time : 52ms
console write time    : 0ms

[api-updater (non-obsolete-error-filter)] 25.04.2021 16:30:30 : Starting D:/Unity/2020.3.0f1/Editor/Data/Tools/ScriptUpdater/APIUpdater.NonObsoleteApiUpdaterDetector.exe
[api-updater (non-obsolete-error-filter)] 
----------------------------------
jit/startup time      : 1166,4986ms
moved types parse time: 122ms
candidates parse time : 2ms
C# parse time         : 1034ms
candidates check time : 259ms
console write time    : 5ms

[api-updater (non-obsolete-error-filter)] 25.04.2021 16:30:53 : Starting D:/Unity/2020.3.0f1/Editor/Data/Tools/ScriptUpdater/APIUpdater.NonObsoleteApiUpdaterDetector.exe
[api-updater (non-obsolete-error-filter)] 
----------------------------------
jit/startup time      : 116,0136ms
moved types parse time: 176ms
candidates parse time : 2ms
C# parse time         : 399ms
candidates check time : 89ms
console write time    : 1ms

